Executing zeExecute.sh
-----------------------------------------------------------------
Descend into 'TestDirectory' directory
 
EXECUTING SourceFiles
Starting parse
Entering state 0
Reading a token: Next token is token PROGRAM ()
Shifting token PROGRAM ()
Entering state 1
Reading a token: Next token is token NEWLINE ()
Shifting token NEWLINE ()
Entering state 4
Reading a token: Next token is token INTTYPE ()
Shifting token INTTYPE ()
Entering state 7
Reducing stack by rule 37 (line 127):
   $1 = token INTTYPE ()
-> $$ = nterm type ()
Stack now 0 1 4
Entering state 12
Reading a token: Next token is token ID ()
Shifting token ID ()
Entering state 14
Reading a token: Next token is token COMA ()
Shifting token COMA ()
Entering state 17
Reading a token: Next token is token ID ()
Shifting token ID ()
Entering state 14
Reading a token: Next token is token COMA ()
Shifting token COMA ()
Entering state 17
Reading a token: Next token is token ID ()
Shifting token ID ()
Entering state 14
Reading a token: Next token is token COMA ()
Shifting token COMA ()
Entering state 17
Reading a token: Next token is token ID ()
Shifting token ID ()
Entering state 14
Reading a token: Next token is token SEMICOLON ()
Reducing stack by rule 14 (line 92):
   $1 = token ID ()
-> $$ = nterm idlist ()
Stack now 0 1 4 12 14 17 14 17 14 17
Entering state 29
Reducing stack by rule 13 (line 91):
   $1 = token ID ()
   $2 = token COMA ()
   $3 = nterm idlist ()
-> $$ = nterm idlist ()
Stack now 0 1 4 12 14 17 14 17
Entering state 29
Reducing stack by rule 13 (line 91):
   $1 = token ID ()
   $2 = token COMA ()
   $3 = nterm idlist ()
-> $$ = nterm idlist ()
Stack now 0 1 4 12 14 17
Entering state 29
Reducing stack by rule 13 (line 91):
   $1 = token ID ()
   $2 = token COMA ()
   $3 = nterm idlist ()
-> $$ = nterm idlist ()
Stack now 0 1 4 12
Entering state 15
Next token is token SEMICOLON ()
Shifting token SEMICOLON ()
Entering state 18
Reading a token: Next token is token NEWLINE ()
Shifting token NEWLINE ()
Entering state 30
Reading a token: Next token is token BEGINT ()
Reducing stack by rule 12 (line 89):
   $1 = nterm type ()
   $2 = nterm idlist ()
   $3 = token SEMICOLON ()
   $4 = token NEWLINE ()
-> $$ = nterm declaration ()
Stack now 0 1 4
Entering state 11
Next token is token BEGINT ()
Shifting token BEGINT ()
Entering state 13
Reading a token: Next token is token NEWLINE ()
Shifting token NEWLINE ()
Entering state 16
Reading a token: Next token is token IF ()
Shifting token IF ()
Entering state 21
Reading a token: Next token is token LPAREN ()
Shifting token LPAREN ()
Entering state 33
Reading a token: Next token is token LPAREN ()
Shifting token LPAREN ()
Entering state 45
Reading a token: Next token is token ID ()
Shifting token ID ()
Entering state 42
Reducing stack by rule 26 (line 110):
   $1 = token ID ()
-> $$ = nterm factor ()
Stack now 0 1 4 11 13 16 21 33 45
Entering state 50
Reducing stack by rule 23 (line 106):
   $1 = nterm factor ()
-> $$ = nterm divisor ()
Stack now 0 1 4 11 13 16 21 33 45
Entering state 49
Reading a token: Next token is token RELOP ()
Reducing stack by rule 21 (line 103):
   $1 = nterm divisor ()
-> $$ = nterm term ()
Stack now 0 1 4 11 13 16 21 33 45
Entering state 48
Next token is token RELOP ()
Reducing stack by rule 19 (line 100):
   $1 = nterm term ()
-> $$ = nterm sub ()
Stack now 0 1 4 11 13 16 21 33 45
Entering state 47
Next token is token RELOP ()
Reducing stack by rule 17 (line 97):
   $1 = nterm sub ()
-> $$ = nterm expr ()
Stack now 0 1 4 11 13 16 21 33 45
Entering state 61
Next token is token RELOP ()
Reducing stack by rule 31 (line 119):
   $1 = nterm expr ()
-> $$ = nterm operand ()
Stack now 0 1 4 11 13 16 21 33 45
Entering state 62
Next token is token RELOP ()
Shifting token RELOP ()
Entering state 73
Reading a token: Next token is token ID ()
Shifting token ID ()
Entering state 42
Reducing stack by rule 26 (line 110):
   $1 = token ID ()
-> $$ = nterm factor ()
Stack now 0 1 4 11 13 16 21 33 45 62 73
Entering state 50
Reducing stack by rule 23 (line 106):
   $1 = nterm factor ()
-> $$ = nterm divisor ()
Stack now 0 1 4 11 13 16 21 33 45 62 73
Entering state 49
Reading a token: Next token is token RPAREN ()
Reducing stack by rule 21 (line 103):
   $1 = nterm divisor ()
-> $$ = nterm term ()
Stack now 0 1 4 11 13 16 21 33 45 62 73
Entering state 48
Next token is token RPAREN ()
Reducing stack by rule 19 (line 100):
   $1 = nterm term ()
-> $$ = nterm sub ()
Stack now 0 1 4 11 13 16 21 33 45 62 73
Entering state 47
Next token is token RPAREN ()
Reducing stack by rule 17 (line 97):
   $1 = nterm sub ()
-> $$ = nterm expr ()
Stack now 0 1 4 11 13 16 21 33 45 62 73
Entering state 46
Next token is token RPAREN ()
Reducing stack by rule 31 (line 119):
   $1 = nterm expr ()
-> $$ = nterm operand ()
Stack now 0 1 4 11 13 16 21 33 45 62 73
Entering state 81
Next token is token RPAREN ()
Shifting token RPAREN ()
Entering state 83
Reducing stack by rule 42 (line 133):
   $1 = token LPAREN ()
   $2 = nterm operand ()
   $3 = token RELOP ()
   $4 = nterm operand ()
   $5 = token RPAREN ()
-> $$ = nterm comparison ()
Stack now 0 1 4 11 13 16 21 33
Entering state 53
Reading a token: Next token is token ID ()
[error 2] line 4syntax error
Error: popping nterm comparison ()
Stack now 0 1 4 11 13 16 21 33
Error: popping token LPAREN ()
Stack now 0 1 4 11 13 16 21
Error: popping token IF ()
Stack now 0 1 4 11 13 16
Error: popping token NEWLINE ()
Stack now 0 1 4 11 13
Error: popping token BEGINT ()
Stack now 0 1 4 11
Error: popping nterm declaration ()
Stack now 0 1 4
Error: popping token NEWLINE ()
Stack now 0 1
Error: popping token PROGRAM ()
Stack now 0
Cleanup: discarding lookahead token ID ()
Stack now 0
'program' Token Found 'program'
'new line' Token Found 
'int type' Token Found 'int'
'identifier' Token Found 'a' 
'identifier' Token Found 'b' 
'identifier' Token Found 'c' 
'identifier' Token Found 'd' 
'new line' Token Found 
'begin' Token Found 'begin'
'new line' Token Found 
'if' Token Found 'if'
'identifier' Token Found 'a' 
'identifier' Token Found 'b' 
'identifier' Token Found 'and' 
EXECUTION COMPLETE
Return To 'WorkingDirectory' directory
 
